\babel@toc {ngerman}{}\relax 
\contentsline {chapter}{Verzeichnisse}{II}{chapter*.1}%
\contentsline {section}{Abkürzungsverzeichnis}{II}{section*.2}%
\contentsline {section}{Abbildungsverzeichnis}{III}{section*.4}%
\contentsline {section}{Tabellenverzeichnis}{IV}{section*.6}%
\contentsline {section}{Quellcodeverzeichnis}{V}{section*.8}%
\contentsline {chapter}{Formular der Aufgabenstellung }{V}{chapter*.9}%
\contentsline {chapter}{\numberline {1}Hilfe}{1}{chapter.1}%
\contentsline {section}{\numberline {1.1}Formeln}{2}{section.1.1}%
\contentsline {chapter}{\numberline {2}Einführung}{3}{chapter.2}%
\contentsline {chapter}{\numberline {3}xxx}{4}{chapter.3}%
\contentsline {chapter}{\numberline {4}xxx}{5}{chapter.4}%
\contentsline {chapter}{Literaturverzeichnis}{i}{section*.13}%
